___lwdiv@dividend 22 0 BANK0 1
___awdiv@counter 2B 0 BANK0 1
sprintf@f 2E 0 BANK0 1
__size_of_Lcd_Cmd 0 0 ABS 0
___lwdiv@counter 27 0 BANK0 1
___awtoft@c 28 0 BANK0 1
__CFG_WRT$OFF 0 0 ABS 0
_PR2 92 0 ABS 0
__S0 2009 0 ABS 0
__S1 E7 0 ABS 0
__S2 0 0 ABS 0
__S3 0 0 ABS 0
__Hintentry 12 0 CODE 0
__Lintentry 4 0 CODE 0
__pintentry 4 0 CODE 0
___ftadd@f1 4E 0 BANK0 1
__end_of___awdiv 7FA 0 CODE 0
_isr C8A 0 CODE 0
___ftadd@f2 51 0 BANK0 1
_isButtonPressed BC 0 BANK1 1
__CFG_BOR4V$BOR40V 0 0 ABS 0
Lcd_Out2@x 23 0 BANK0 1
_main EB4 0 CODE 0
Lcd_Out2@y 26 0 BANK0 1
___sp 0 0 STACK 2
btemp 7E 0 ABS 0
ltemp 7E 0 ABS 0
ttemp 7E 0 ABS 0
wtemp 7E 0 ABS 0
start 12 0 CODE 0
?___ftadd 4E 0 BANK0 1
___fttol@f1 5B 0 BANK0 1
Lcd_Out2@buffer 24 0 BANK0 1
___ftmul@f1 2E 0 BANK0 1
Lcd_Chr_CP@data 22 0 BANK0 1
___fttol@lval 64 0 BANK0 1
___ftdiv@f1 41 0 BANK0 1
__size_of_turn_motor 0 0 ABS 0
_TRISA 85 0 ABS 0
_TRISB 86 0 ABS 0
_TRISC 87 0 ABS 0
_PORTA 5 0 ABS 0
reset_vec 0 0 CODE 0
_TRISD 88 0 ABS 0
_PORTB 6 0 ABS 0
_TRISE 89 0 ABS 0
_PORTC 7 0 ABS 0
_ANSEL 188 0 ABS 0
_PORTD 8 0 ABS 0
_T2CON 12 0 ABS 0
_PORTE 9 0 ABS 0
ltemp0 7E 0 ABS 0
ttemp0 7E 0 ABS 0
wtemp0 7E 0 ABS 0
ltemp1 82 0 ABS 0
ttemp1 81 0 ABS 0
wtemp1 80 0 ABS 0
ltemp2 86 0 ABS 0
ttemp2 84 0 ABS 0
wtemp2 82 0 ABS 0
ltemp3 80 0 ABS 0
ttemp3 87 0 ABS 0
wtemp3 84 0 ABS 0
___ftmul@f2 31 0 BANK0 1
ttemp4 7F 0 ABS 0
wtemp4 86 0 ABS 0
wtemp5 88 0 ABS 0
wtemp6 7F 0 ABS 0
___ftdiv@f2 3E 0 BANK0 1
interrupt_function 4 0 CODE 0
__size_of_stop_motor 0 0 ABS 0
__Hconfig 2009 0 CONFIG 0
__Lconfig 2007 0 CONFIG 0
__end_of_Lcd_Init 633 0 CODE 0
___ftpack DBC 0 CODE 0
__end_of_Lcd_Out2 D71 0 CODE 0
__end_of__stringtab 806 0 STRING 0
?___lwmod 28 0 BANK0 1
_pr2value 6E 0 BANK0 1
___ftdiv@f3 49 0 BANK0 1
__Hram 0 0 ABS 0
__Lram 0 0 ABS 0
__end_of__stringdata 826 0 STRING 0
__size_of_isr 0 0 ABS 0
?_sprintf 2E 0 BANK0 1
___ftmul@cntr 3C 0 BANK0 1
__size_of___ftadd 0 0 ABS 0
___ftdiv@cntr 48 0 BANK0 1
__size_of_config_board 0 0 ABS 0
__Hfunctab 0 0 CODE 0
__Lfunctab 0 0 CODE 0
_Lcd_Init 56C 0 CODE 0
_ADCON0 1F 0 ABS 0
_start_lcd C00 0 CODE 0
__Hcommon 0 0 ABS 0
__Lcommon 0 0 ABS 0
?___fttol 5B 0 BANK0 1
_PIE1bits 8C 0 ABS 0
__Heeprom_data 0 0 EEDATA 3
__Leeprom_data 0 0 EEDATA 3
_PIR1bits C 0 ABS 0
?___ftmul 2E 0 BANK0 1
sprintf@ap 34 0 BANK0 1
___int_sp 0 0 STACK 2
_CCPR1L 15 0 ABS 0
?___ftdiv 3E 0 BANK0 1
?___awdiv 26 0 BANK0 1
___awtoft C65 0 CODE 0
_ANSELH 189 0 ABS 0
?___lwdiv 20 0 BANK0 1
__Habs1 0 0 ABS 0
__Labs1 0 0 ABS 0
__Hsfr0 0 0 ABS 0
__Lsfr0 0 0 ABS 0
__Hsfr1 0 0 ABS 0
__Lsfr1 0 0 ABS 0
turn_motor@degrees 69 0 BANK0 1
__Hsfr2 0 0 ABS 0
__Lsfr2 0 0 ABS 0
__Hsfr3 0 0 ABS 0
__Lsfr3 0 0 ABS 0
___ftmul@f3_as_product 39 0 BANK0 1
__end_of_Lcd_Chr_CP 79D 0 CODE 0
__end_of___ftpack E26 0 CODE 0
?___ftpack 20 0 BANK0 1
_dutycycle BA 0 BANK1 1
_oscperiod B4 0 BANK1 1
_pwmperiod B7 0 BANK1 1
__size_of___ftpack 0 0 ABS 0
__end_of_dpowers 810 0 STRING 0
Lcd_Out2@data 27 0 BANK0 1
__size_of___fttol 0 0 ABS 0
___ftadd@sign 58 0 BANK0 1
init_fetch0 BD5 0 CODE 0
__Hcode 0 0 ABS 0
__Lcode 0 0 ABS 0
stackhi 0 0 ABS 0
sprintf@sp 3B 0 BANK0 1
__HcstackBANK0 0 0 ABS 0
__LcstackBANK0 0 0 ABS 0
__pcstackBANK0 20 0 BANK0 1
stacklo 0 0 ABS 0
saved_w 7E 0 ABS 0
__Hinit 12 0 CODE 0
__Linit 12 0 CODE 0
___wmul C40 0 CODE 0
__end_of_main F53 0 CODE 0
__end_of_Lcd_Cmd 1000 0 CODE 0
__Htext 0 0 ABS 0
__Ltext 0 0 ABS 0
___wmul@multiplier 20 0 BANK0 1
turn_motor@i E1 0 BANK1 1
___ftmul@sign 3D 0 BANK0 1
end_of_initialization 2D 0 CODE 0
___ftdiv@sign 4D 0 BANK0 1
___awdiv@sign 2C 0 BANK0 1
___wmul@multiplicand 22 0 BANK0 1
__stringtab 800 0 STRING 0
__size_of___awtoft 0 0 ABS 0
_direction D6 0 BANK1 1
__HdataBANK1 0 0 ABS 0
__LdataBANK1 0 0 ABS 0
__pdataBANK1 D4 0 BANK1 1
__CFG_FOSC$XT 0 0 ABS 0
__end_of___ftadd 3BE 0 CODE 0
_TRISCbits 87 0 ABS 0
_TRISDbits 88 0 ABS 0
_PORTBbits 6 0 ABS 0
_PORTCbits 7 0 ABS 0
_PORTDbits 8 0 ABS 0
__Hstrings 0 0 ABS 0
__Lstrings 0 0 ABS 0
__pstrings 800 0 STRING 0
?___awtoft 28 0 BANK0 1
_CCP1CON 17 0 ABS 0
__end_of_turn_motor 2B5 0 CODE 0
__Hbank0 0 0 ABS 0
__Lbank0 0 0 ABS 0
__Hbank1 0 0 ABS 0
__Lbank1 0 0 ABS 0
__Hbank2 0 0 ABS 0
__Lbank2 0 0 ABS 0
Lcd_Init@data 25 0 BANK0 1
__Hbank3 0 0 ABS 0
__Lbank3 0 0 ABS 0
___latbits 2 0 ABS 0
___ftmul@exp 38 0 BANK0 1
__end_of_stop_motor BD5 0 CODE 0
_buffer1 C0 0 BANK1 1
___ftdiv@exp 4C 0 BANK0 1
_set_timer2 BE6 0 CODE 0
_buffer2 A0 0 BANK1 1
__Hpowerup 0 0 CODE 0
__Lpowerup 0 0 CODE 0
__size_of_set_timer2 0 0 ABS 0
__ptext1 31 0 CODE 0
__ptext2 BE6 0 CODE 0
__ptext3 E26 0 CODE 0
__ptext4 499 0 CODE 0
__ptext5 633 0 CODE 0
__ptext6 2B5 0 CODE 0
__ptext7 C65 0 CODE 0
__HcstackBANK1 0 0 ABS 0
__LcstackBANK1 0 0 ABS 0
__ptext8 DBC 0 CODE 0
__ptext9 79D 0 CODE 0
__pcstackBANK1 DE 0 BANK1 1
__Hclrtext 0 0 ABS 0
__Lclrtext 0 0 ABS 0
__end_of__initialization 2D 0 CODE 0
_Lcd_Chr_CP 6EB 0 CODE 0
__end_of___lwdiv D30 0 CODE 0
_Lcd_Cmd F53 0 CODE 0
_degreescount D4 0 BANK1 1
___ftadd 2B5 0 CODE 0
set_timer2@prsc 20 0 BANK0 1
__Hidloc 0 0 IDLOC 0
__Lidloc 0 0 IDLOC 0
_started 77 0 COMMON 1
__Hstack 0 0 STACK 2
__Lstack 0 0 STACK 2
___lwmod CBA 0 CODE 0
__end_of_isr CBA 0 CODE 0
___ftpack@sign 24 0 BANK0 1
_sprintf 3BE 0 CODE 0
___ftadd@exp1 5A 0 BANK0 1
_oscfreq D8 0 BANK1 1
_pwmfreq DB 0 BANK1 1
___fttol E26 0 CODE 0
?___wmul 20 0 BANK0 1
__Hcinit 31 0 CODE 0
___ftmul 499 0 CODE 0
__Lcinit 15 0 CODE 0
__size_of_Lcd_Chr_CP 0 0 ABS 0
___ftdiv 633 0 CODE 0
___awdiv 79D 0 CODE 0
___lwdiv CF0 0 CODE 0
__size_of_main 0 0 ABS 0
_dpowers 806 0 STRING 0
___fttol@exp1 68 0 BANK0 1
__size_of___ftdiv 0 0 ABS 0
__end_of_sprintf 499 0 CODE 0
__size_of_Lcd_Out2 0 0 ABS 0
___awtoft@sign 2D 0 BANK0 1
clear_ram0 BB8 0 CODE 0
___ftpack@arg 20 0 BANK0 1
__size_of___lwdiv 0 0 ABS 0
__size_of_next_degree 0 0 ABS 0
___ftadd@exp2 59 0 BANK0 1
__HbssBANK0 0 0 ABS 0
__LbssBANK0 0 0 ABS 0
__pbssBANK0 6E 0 BANK0 1
Lcd_Cmd@data 22 0 BANK0 1
__CFG_FCMEN$OFF 0 0 ABS 0
sprintf@flag 35 0 BANK0 1
__HbssBANK1 0 0 ABS 0
__LbssBANK1 0 0 ABS 0
__pbssBANK1 A0 0 BANK1 1
__ptext10 C00 0 CODE 0
__ptext20 C40 0 CODE 0
__ptext11 56C 0 CODE 0
__end_of_set_timer2 C00 0 CODE 0
__ptext21 C8A 0 CODE 0
__ptext12 3BE 0 CODE 0
__ptext22 BCA 0 CODE 0
__end_of_start_lcd C1D 0 CODE 0
__ptext13 CBA 0 CODE 0
_ADCON1bits 9F 0 ABS 0
sprintf@prec 36 0 BANK0 1
__HidataBANK1 0 0 ABS 0
__size_of___awdiv 0 0 ABS 0
__LidataBANK1 0 0 ABS 0
__ptext14 CF0 0 CODE 0
__pidataBANK1 BC0 0 CODE 0
__ptext15 D71 0 CODE 0
__ptext16 C1D 0 CODE 0
__CFG_BOREN$OFF 0 0 ABS 0
__ptext17 D30 0 CODE 0
__end_of___lwmod CF0 0 CODE 0
___lwmod@divisor 28 0 BANK0 1
__ptext18 F53 0 CODE 0
__CFG_PWRTE$OFF 0 0 ABS 0
__HbssCOMMON 0 0 ABS 0
__LbssCOMMON 0 0 ABS 0
___fttol@sign1 63 0 BANK0 1
__ptext19 6EB 0 CODE 0
__pbssCOMMON 77 0 COMMON 1
_INTCONbits B 0 ABS 0
__Hend_init 15 0 CODE 0
__Lend_init 12 0 CODE 0
__size_of_Lcd_Init 0 0 ABS 0
___ftpack@exp 23 0 BANK0 1
___awdiv@divisor 26 0 BANK0 1
___lwdiv@divisor 20 0 BANK0 1
__end_of___ftmul 56C 0 CODE 0
__size_of___wmul 0 0 ABS 0
__Hreset_vec 3 0 CODE 0
__Lreset_vec 0 0 CODE 0
__end_of_next_degree DBC 0 CODE 0
__stringdata 810 0 STRING 0
__size_of_start_lcd 0 0 ABS 0
init_ram0 BD9 0 CODE 0
intlevel0 0 0 CODE 0
__CFG_WDTE$OFF 0 0 ABS 0
intlevel1 0 0 CODE 0
_next_degree D71 0 CODE 0
_config_board C1D 0 CODE 0
intlevel2 0 0 CODE 0
__end_of___awtoft C8A 0 CODE 0
intlevel3 0 0 CODE 0
_turn_motor 31 0 CODE 0
_stop_motor BCA 0 CODE 0
_Lcd_Out2 D30 0 CODE 0
intlevel4 0 0 CODE 0
intlevel5 0 0 CODE 0
__size_of___lwmod 0 0 ABS 0
__HcstackCOMMON 0 0 ABS 0
__LcstackCOMMON 0 0 ABS 0
__pcstackCOMMON 70 0 COMMON 1
__end_of___wmul C65 0 CODE 0
__CFG_CPD$OFF 0 0 ABS 0
start_initialization 15 0 CODE 0
___awdiv@quotient 2D 0 BANK0 1
___lwdiv@quotient 25 0 BANK0 1
_turn_motor$837 DE 0 BANK1 1
_maxdutycycle BE 0 BANK1 1
__Hmaintext 0 0 ABS 0
__Lmaintext 0 0 ABS 0
__CFG_IESO$OFF 0 0 ABS 0
__pmaintext EB4 0 CODE 0
__CFG_MCLRE$ON 0 0 ABS 0
__end_of___fttol EB4 0 CODE 0
__Hinittext 0 0 ABS 0
__Linittext 0 0 ABS 0
__end_of_config_board C40 0 CODE 0
__size_of_sprintf 0 0 ABS 0
__initialization 15 0 CODE 0
__stringbase 805 0 STRING 0
___lwmod@dividend 2A 0 BANK0 1
sprintf@_val 37 0 BANK0 1
___wmul@product 24 0 BANK0 1
___lwmod@counter 2D 0 BANK0 1
__CFG_CP$OFF 0 0 ABS 0
__size_of___ftmul 0 0 ABS 0
__CFG_LVP$OFF 0 0 ABS 0
sprintf@c 3C 0 BANK0 1
__end_of___ftdiv 6EB 0 CODE 0
___awdiv@dividend 28 0 BANK0 1
%segments
reset_vec 0 5 CODE 0 0
intentry 8 FF3 CODE 8 0
config 400E 4011 CONFIG 400E 0
cstackCOMMON 70 78 COMMON 70 1
cstackBANK0 20 6F BANK0 20 1
bssBANK1 A0 E6 BANK1 A0 1
text18 1EA6 1FFF CODE 1EA6 0
maintext 1D68 1EA5 CODE 1D68 0
text3 1C4C 1D67 CODE 1C4C 0
text8 1B78 1C4B CODE 1B78 0
text15 1AE2 1B77 CODE 1AE2 0
text17 1A60 1AE1 CODE 1A60 0
text14 19E0 1A5F CODE 19E0 0
text13 1974 19DF CODE 1974 0
text21 1914 1973 CODE 1914 0
strings 1000 104B STRING 1000 0
text7 18CA 1913 CODE 18CA 0
text20 1880 18C9 CODE 1880 0
text16 183A 187F CODE 183A 0
text10 1800 1839 CODE 1800 0
text2 17CC 17FF CODE 17CC 0
inittext 17AA 17CB CODE 17AA 0
text22 1794 17A9 CODE 1794 0
idataBANK1 1780 1793 CODE 1780 0
clrtext 1770 177F CODE 1770 0
%locals
dist/default/production\servo-motor.production.obj
C:\Users\Erick\AppData\Local\Temp\s6b4.
582 15 0 CODE 0
585 15 0 CODE 0
667 15 0 CODE 0
668 16 0 CODE 0
671 17 0 CODE 0
672 18 0 CODE 0
675 19 0 CODE 0
676 1A 0 CODE 0
677 1B 0 CODE 0
678 1C 0 CODE 0
679 1D 0 CODE 0
711 22 0 CODE 0
712 23 0 CODE 0
713 24 0 CODE 0
714 25 0 CODE 0
715 26 0 CODE 0
716 27 0 CODE 0
717 28 0 CODE 0
718 29 0 CODE 0
719 2A 0 CODE 0
725 2D 0 CODE 0
726 2D 0 CODE 0
727 2E 0 CODE 0
654 BB8 0 CODE 0
655 BB8 0 CODE 0
656 BB9 0 CODE 0
657 BB9 0 CODE 0
658 BBA 0 CODE 0
659 BBB 0 CODE 0
660 BBC 0 CODE 0
661 BBD 0 CODE 0
662 BBE 0 CODE 0
663 BBF 0 CODE 0
685 BD5 0 CODE 0
686 BD5 0 CODE 0
687 BD6 0 CODE 0
688 BD7 0 CODE 0
689 BD8 0 CODE 0
696 BD9 0 CODE 0
697 BD9 0 CODE 0
698 BDC 0 CODE 0
699 BDD 0 CODE 0
700 BDE 0 CODE 0
701 BDF 0 CODE 0
702 BE0 0 CODE 0
703 BE1 0 CODE 0
704 BE2 0 CODE 0
705 BE3 0 CODE 0
706 BE4 0 CODE 0
707 BE5 0 CODE 0
main.c
47 EB4 0 CODE 0
48 EB4 0 CODE 0
49 EB9 0 CODE 0
50 EBE 0 CODE 0
56 ED1 0 CODE 0
57 ED2 0 CODE 0
59 ED8 0 CODE 0
60 EE9 0 CODE 0
61 EEE 0 CODE 0
63 EF1 0 CODE 0
52 EF7 0 CODE 0
53 F11 0 CODE 0
54 F1F 0 CODE 0
55 F39 0 CODE 0
56 F47 0 CODE 0
66 F4B 0 CODE 0
67 F4F 0 CODE 0
51 F52 0 CODE 0
73 F53 0 CODE 0
105 31 0 CODE 0
106 31 0 CODE 0
107 61 0 CODE 0
108 8E 0 CODE 0
110 BB 0 CODE 0
112 CA 0 CODE 0
113 170 0 CODE 0
117 188 0 CODE 0
118 1F4 0 CODE 0
120 25B 0 CODE 0
121 25C 0 CODE 0
124 25F 0 CODE 0
125 263 0 CODE 0
127 272 0 CODE 0
130 286 0 CODE 0
131 297 0 CODE 0
110 298 0 CODE 0
134 2B5 0 CODE 0
136 BE6 0 CODE 0
137 BE6 0 CODE 0
138 BED 0 CODE 0
139 BEF 0 CODE 0
140 BF0 0 CODE 0
141 BF5 0 CODE 0
142 BF7 0 CODE 0
143 BF8 0 CODE 0
144 BFD 0 CODE 0
146 BFF 0 CODE 0
C:\Program Files (x86)\Microchip\xc8\v1.30\sources\common\fttol.c
44 E26 0 CODE 0
49 E26 0 CODE 0
50 E37 0 CODE 0
51 E40 0 CODE 0
52 E52 0 CODE 0
53 E53 0 CODE 0
54 E59 0 CODE 0
55 E60 0 CODE 0
56 E62 0 CODE 0
57 E64 0 CODE 0
58 E69 0 CODE 0
60 E72 0 CODE 0
61 E7B 0 CODE 0
63 E82 0 CODE 0
64 E86 0 CODE 0
66 E8F 0 CODE 0
67 E98 0 CODE 0
65 E9A 0 CODE 0
70 E9D 0 CODE 0
71 EA0 0 CODE 0
72 EAB 0 CODE 0
73 EB4 0 CODE 0
C:\Program Files (x86)\Microchip\xc8\v1.30\sources\common\ftmul.c
51 499 0 CODE 0
56 499 0 CODE 0
57 4AA 0 CODE 0
58 4B1 0 CODE 0
59 4C0 0 CODE 0
60 4C7 0 CODE 0
61 4CC 0 CODE 0
62 4DE 0 CODE 0
63 4F0 0 CODE 0
64 4F4 0 CODE 0
66 4F5 0 CODE 0
67 4F6 0 CODE 0
68 4FC 0 CODE 0
69 502 0 CODE 0
71 506 0 CODE 0
72 508 0 CODE 0
73 516 0 CODE 0
74 51E 0 CODE 0
75 526 0 CODE 0
76 52A 0 CODE 0
78 52E 0 CODE 0
79 530 0 CODE 0
80 53E 0 CODE 0
81 546 0 CODE 0
82 54E 0 CODE 0
83 552 0 CODE 0
84 56C 0 CODE 0
C:\Program Files (x86)\Microchip\xc8\v1.30\sources\pic\ftdiv.c
49 633 0 CODE 0
55 633 0 CODE 0
56 644 0 CODE 0
57 64B 0 CODE 0
58 65A 0 CODE 0
59 661 0 CODE 0
60 667 0 CODE 0
61 66C 0 CODE 0
62 67E 0 CODE 0
63 690 0 CODE 0
64 694 0 CODE 0
65 695 0 CODE 0
66 69B 0 CODE 0
67 69C 0 CODE 0
68 6A2 0 CODE 0
70 6A6 0 CODE 0
71 6AE 0 CODE 0
72 6BA 0 CODE 0
73 6C4 0 CODE 0
75 6C5 0 CODE 0
76 6CD 0 CODE 0
77 6D1 0 CODE 0
78 6EB 0 CODE 0
C:\Program Files (x86)\Microchip\xc8\v1.30\sources\common\ftadd.c
86 2B5 0 CODE 0
90 2B5 0 CODE 0
91 2C3 0 CODE 0
92 2CF 0 CODE 0
93 2DE 0 CODE 0
94 2E5 0 CODE 0
96 2F4 0 CODE 0
97 2F8 0 CODE 0
98 2F9 0 CODE 0
99 2FA 0 CODE 0
100 2FB 0 CODE 0
101 2FC 0 CODE 0
102 2FD 0 CODE 0
103 303 0 CODE 0
104 304 0 CODE 0
106 30A 0 CODE 0
110 30E 0 CODE 0
111 316 0 CODE 0
112 318 0 CODE 0
114 323 0 CODE 0
115 32B 0 CODE 0
113 32F 0 CODE 0
117 334 0 CODE 0
121 338 0 CODE 0
122 340 0 CODE 0
123 342 0 CODE 0
125 34D 0 CODE 0
126 355 0 CODE 0
124 359 0 CODE 0
129 35D 0 CODE 0
131 35F 0 CODE 0
132 365 0 CODE 0
134 36F 0 CODE 0
136 371 0 CODE 0
137 377 0 CODE 0
139 381 0 CODE 0
140 382 0 CODE 0
141 390 0 CODE 0
142 392 0 CODE 0
143 398 0 CODE 0
144 3A2 0 CODE 0
146 3A4 0 CODE 0
148 3BE 0 CODE 0
C:\Program Files (x86)\Microchip\xc8\v1.30\sources\common\awtoft.c
32 C65 0 CODE 0
36 C65 0 CODE 0
37 C68 0 CODE 0
38 C6A 0 CODE 0
39 C6F 0 CODE 0
41 C71 0 CODE 0
42 C8A 0 CODE 0
C:\Program Files (x86)\Microchip\xc8\v1.30\sources\common\float.c
62 DBC 0 CODE 0
64 DBC 0 CODE 0
65 DC6 0 CODE 0
67 DCD 0 CODE 0
68 DD1 0 CODE 0
66 DD9 0 CODE 0
71 DDE 0 CODE 0
72 DE2 0 CODE 0
73 DEC 0 CODE 0
74 DF4 0 CODE 0
70 DF4 0 CODE 0
76 DF9 0 CODE 0
77 DFB 0 CODE 0
75 E03 0 CODE 0
79 E05 0 CODE 0
80 E07 0 CODE 0
81 E0D 0 CODE 0
82 E0F 0 CODE 0
83 E21 0 CODE 0
84 E24 0 CODE 0
86 E25 0 CODE 0
C:\Program Files (x86)\Microchip\xc8\v1.30\sources\common\awdiv.c
6 79D 0 CODE 0
14 79D 0 CODE 0
15 7A0 0 CODE 0
16 7A2 0 CODE 0
17 7A7 0 CODE 0
19 7A9 0 CODE 0
20 7AB 0 CODE 0
21 7B0 0 CODE 0
23 7B4 0 CODE 0
24 7B6 0 CODE 0
25 7BA 0 CODE 0
26 7BC 0 CODE 0
27 7BE 0 CODE 0
28 7C5 0 CODE 0
26 7C9 0 CODE 0
31 7CA 0 CODE 0
32 7D1 0 CODE 0
33 7D9 0 CODE 0
34 7DF 0 CODE 0
36 7E0 0 CODE 0
37 7E7 0 CODE 0
39 7EB 0 CODE 0
40 7EE 0 CODE 0
41 7F3 0 CODE 0
42 7FA 0 CODE 0
main.c
148 C00 0 CODE 0
149 C00 0 CODE 0
150 C05 0 CODE 0
151 C0B 0 CODE 0
152 C11 0 CODE 0
153 C1C 0 CODE 0
lcd.h
46 56C 0 CODE 0
48 56C 0 CODE 0
49 56F 0 CODE 0
50 570 0 CODE 0
51 571 0 CODE 0
52 572 0 CODE 0
53 573 0 CODE 0
54 574 0 CODE 0
55 577 0 CODE 0
56 578 0 CODE 0
57 579 0 CODE 0
58 57A 0 CODE 0
59 57B 0 CODE 0
60 57C 0 CODE 0
61 584 0 CODE 0
62 58E 0 CODE 0
63 598 0 CODE 0
64 5A2 0 CODE 0
65 5AC 0 CODE 0
66 5B6 0 CODE 0
67 5BE 0 CODE 0
68 5BE 0 CODE 0
69 5C3 0 CODE 0
70 5C8 0 CODE 0
71 5CA 0 CODE 0
72 5CD 0 CODE 0
73 5D4 0 CODE 0
74 5D5 0 CODE 0
66 5DD 0 CODE 0
76 5E7 0 CODE 0
77 5ED 0 CODE 0
78 5F3 0 CODE 0
79 5F6 0 CODE 0
80 5FE 0 CODE 0
81 606 0 CODE 0
82 612 0 CODE 0
83 61E 0 CODE 0
84 628 0 CODE 0
85 632 0 CODE 0
C:\Program Files (x86)\Microchip\xc8\v1.30\sources\common\doprnt.c
492 3BE 0 CODE 0
542 3C1 0 CODE 0
545 3C5 0 CODE 0
547 3D5 0 CODE 0
550 3D9 0 CODE 0
551 3E4 0 CODE 0
557 3E5 0 CODE 0
644 3E6 0 CODE 0
1268 3FB 0 CODE 0
1270 407 0 CODE 0
1271 409 0 CODE 0
1272 40D 0 CODE 0
1314 412 0 CODE 0
1315 418 0 CODE 0
1314 431 0 CODE 0
1447 439 0 CODE 0
1448 43D 0 CODE 0
1481 448 0 CODE 0
1483 44C 0 CODE 0
1498 454 0 CODE 0
1533 488 0 CODE 0
1483 493 0 CODE 0
1547 494 0 CODE 0
1550 499 0 CODE 0
C:\Program Files (x86)\Microchip\xc8\v1.30\sources\common\lwmod.c
6 CBA 0 CODE 0
13 CBA 0 CODE 0
14 CC0 0 CODE 0
15 CC2 0 CODE 0
16 CC4 0 CODE 0
17 CCB 0 CODE 0
15 CCF 0 CODE 0
20 CD0 0 CODE 0
21 CD8 0 CODE 0
22 CDE 0 CODE 0
23 CE5 0 CODE 0
25 CE9 0 CODE 0
26 CF0 0 CODE 0
C:\Program Files (x86)\Microchip\xc8\v1.30\sources\common\lwdiv.c
6 CF0 0 CODE 0
14 CF0 0 CODE 0
15 CF4 0 CODE 0
16 CF8 0 CODE 0
17 CFA 0 CODE 0
18 CFC 0 CODE 0
19 D03 0 CODE 0
17 D07 0 CODE 0
22 D08 0 CODE 0
23 D0F 0 CODE 0
24 D17 0 CODE 0
25 D1D 0 CODE 0
27 D1E 0 CODE 0
28 D25 0 CODE 0
30 D29 0 CODE 0
31 D30 0 CODE 0
main.c
75 D71 0 CODE 0
76 D71 0 CODE 0
77 D96 0 CODE 0
78 DA1 0 CODE 0
79 DA7 0 CODE 0
80 DB5 0 CODE 0
81 DBB 0 CODE 0
82 DBC 0 CODE 0
Config.c
3 C1D 0 CODE 0
5 C1D 0 CODE 0
6 C21 0 CODE 0
7 C23 0 CODE 0
8 C25 0 CODE 0
9 C27 0 CODE 0
11 C28 0 CODE 0
15 C2F 0 CODE 0
16 C32 0 CODE 0
35 C34 0 CODE 0
36 C38 0 CODE 0
37 C3B 0 CODE 0
38 C3C 0 CODE 0
40 C3D 0 CODE 0
41 C3E 0 CODE 0
42 C3F 0 CODE 0
lcd.h
109 D30 0 CODE 0
112 D33 0 CODE 0
114 D34 0 CODE 0
115 D37 0 CODE 0
116 D3A 0 CODE 0
117 D3D 0 CODE 0
119 D42 0 CODE 0
112 D43 0 CODE 0
120 D51 0 CODE 0
121 D57 0 CODE 0
123 D5F 0 CODE 0
124 D6A 0 CODE 0
121 D70 0 CODE 0
127 D71 0 CODE 0
144 F53 0 CODE 0
145 F56 0 CODE 0
146 F58 0 CODE 0
147 F7D 0 CODE 0
148 FA1 0 CODE 0
149 FA5 0 CODE 0
150 FAE 0 CODE 0
151 FD3 0 CODE 0
152 FEA 0 CODE 0
153 FEE 0 CODE 0
154 FF7 0 CODE 0
155 FFF 0 CODE 0
130 6EB 0 CODE 0
131 6EE 0 CODE 0
132 6F0 0 CODE 0
133 715 0 CODE 0
134 739 0 CODE 0
135 73D 0 CODE 0
136 746 0 CODE 0
137 76B 0 CODE 0
138 782 0 CODE 0
139 786 0 CODE 0
140 78F 0 CODE 0
141 79C 0 CODE 0
C:\Program Files (x86)\Microchip\xc8\v1.30\sources\common\wmul.c
4 C40 0 CODE 0
20 C40 0 CODE 0
22 C44 0 CODE 0
23 C46 0 CODE 0
24 C4C 0 CODE 0
25 C53 0 CODE 0
26 C5A 0 CODE 0
30 C5E 0 CODE 0
31 C65 0 CODE 0
main.c
84 C8A 0 CODE 0
85 C8A 0 CODE 0
86 C90 0 CODE 0
87 C94 0 CODE 0
88 C97 0 CODE 0
90 C9A 0 CODE 0
91 CA7 0 CODE 0
93 CAC 0 CODE 0
94 CAF 0 CODE 0
84 4 0 CODE 0
96 BCA 0 CODE 0
97 BCA 0 CODE 0
99 BCD 0 CODE 0
100 BCE 0 CODE 0
101 BD1 0 CODE 0
102 BD2 0 CODE 0
103 BD4 0 CODE 0
